# Blender v2.76 (sub 0) OBJ File: 'arenaj.blend'
# www.blender.org
mtllib arenaj_texture.mtl
o Arena
v -0.268508 -0.221975 -0.514274
v -0.262870 -0.214885 0.486695
v -0.518312 0.326761 0.739151
v -0.531922 0.326761 -0.772839
v 0.230044 -0.219765 -0.516298
v 0.239076 -0.212669 0.483508
v 0.490113 0.326760 0.730689
v 0.481458 0.326760 -0.774834
vt 0.117135 0.618810
vt 0.452579 0.000000
vt 0.121469 0.123723
vt 0.452579 0.747865
vt 0.787552 0.618163
vt 0.790310 0.123632
vt 1.000000 0.000000
vt 1.000000 0.744645
vt 0.452579 0.371188
vt 0.453928 0.124601
vt 0.787552 0.000000
vt 0.787552 0.501221
vt 0.452579 0.873931
vt 0.663958 0.501221
vt 0.453444 0.625661
vt 0.663958 1.000000
vt 0.003530 0.123064
vt 0.000000 0.617592
vn -0.903100 -0.429400 0.007900
vn -0.902900 -0.429800 0.007800
vn -0.903000 -0.429600 0.008200
vn -0.232500 0.459800 -0.857000
vn 0.631900 -0.118500 -0.765900
vn -0.903200 -0.429200 0.007900
vn -0.702800 0.045200 0.710000
vn 0.908800 0.056100 0.413400
vn -0.696900 -0.622500 0.356000
vn -0.907500 0.420000 0.005200
vn 0.001800 0.427000 0.904300
vn 0.007100 -0.419500 0.907700
vn 0.008100 -0.419500 0.907700
vn 0.004400 -1.000000 0.007000
vn 0.004500 -1.000000 0.007100
vn 0.004400 -1.000000 0.007100
usemtl Material
s 1
f 1/1/1 3/2/2 2/3/3
f 1/1/4 4/4/5 3/2/6
f 5/5/7 6/6/8 7/7/9
f 5/5/7 7/7/9 8/8/10
f 1/9/4 5/10/7 8/11/11
f 1/9/4 8/11/11 4/12/5
f 2/13/12 7/14/9 6/15/8
f 2/13/12 3/16/13 7/14/9
f 1/1/4 6/17/8 5/18/7
f 1/1/14 2/3/15 6/17/16
