{
  "sensors": {
    "autodetect": false,
    "sensor_west": {
      "idVendor": 1133,
      "idProduct": 49233
    },
    "sensor_north": {
      "idVendor": 1133,
      "idProduct": 49740
    },
    "speed_west": 0.000095513,
    "speed_north": 0.000066985,
    "frequency": 50,
    "verbose": true
  },
  "ephys": {
    "connect": false,
    "hostname": "192.168.0.2",
    "port": 5556,
    "frequency": 1,
    "rec_dir": "D:\\user\\andrey\\data",
    "verbose": true
  },
  "arduino": {
    "autodetect": true,
    "connect": true,
    "port": "/dev/ttyACM0",
    "baud": 115200,
    "verbose": true
  },
  "infowindow": {
    "enabled": false,
    "xlim": [-2.0, 2.0],
    "ylim": [-2.0, 2.0],
    "size": {
      "x": 4,
      "y": 4
    },
    "location": {
      "x": 2930,
      "y": 15
    }
  },
  "videotracking": {
    "enabled": true,
    "mirror": false,
    "device_id": 2,
    "location": {
      "x": 1940,
      "y": 20
    },
    "resolution": {
      "x": 1024,
      "y": 768
    },
    "record": {
      "enabled": true,
      "where": "",
      "codec": "H264",
      "fps": 15.0
    }
  },
  "vr": {
    "screen": {
      "screen_index": 3,
      "fullscreen": true,
      "width": 640,
      "height": 480,
      "location": {
        "x": 100,
        "y": 100
      }
    },
    "alias": {
      "enabled": true,
      "screen_index": 0,
      "fullscreen": false,
      "width": 480,
      "height": 360,
      "location": {
        "x": 1943,
        "y": 820
      }
    },
    "sensors": {
      "use_sensors": true,
      "gain": 2.0
    },
    "keyboard": {
      "step": 0.2
    },
    "scene": {
      "yaw": 270.0,
      "scaling": 1.0,
      "border": 0.05,
      "width": 1.0,
      "reward_type": "circular",
      "sides": 32
    },
    "logging": {
      "enabled": false,
      "where": ""
    },
    "reward": {
      "syringe": 0,
      "displacement": 500,
      "delay": 7.0
    },
    "sound": {
      "filepath": "",
      "count": 5,
      "delay": 0.3
    },
    "subjects": {
      "user_name": "andrey",
      "animal": "11841"
    },
    "verbose": true
  },
  "save_to": "E:\\User\\andrey\\data"
}