{
  "ephys": {
    "connect": false,
    "hostname": "192.168.0.3",
    "port": 5556,
    "frequency": 1,
    "rec_dir": "G:\\andrey",
    "verbose": true
  },
  "logging": {
      "enabled": false
  },
  "feeder": {
    "autodetect": false,
    "connect": false,
    "port": "COM12",
    "baud": 9600,
    "verbose": true
  },
  "infowindow": {
    "enabled": false
  },
  "videotracking": {
    "enabled": true,
    "mirror": false,
    "device_id": 0,
    "location": {
      "x": 100,
      "y": 100
    },
    "resolution": {
      "x": 1280,
      "y": 720
    },
    "record": {
      "enabled": false,
      "where": "",
      "codec": "DIVX",
      "fps": 20.0
    }
  },
  "vr": {
    "screen": {
      "screen_index": 1,
      "fullscreen": true,
      "width": 640,
      "height": 480,
      "location": {
        "x": 100,
        "y": 100
      },
      "projector_file": "",
      "projector_position": [-0.184381887317, 2.65622377396, 0.228488609195],
      "projector_rotation": [ -89.7993927002, -0.594229638577, 94.8309020996],
      "antialiasing": true,
      "vsync": false,
      "fps_mode": false
    },
    "projector": {
      "enabled": true,
      "led_on": true,
      "led_intensity": "50.0"
    },
    "scene": {
      "yaw": 0.0,
      "arena_filename": "arena.obj",
      "body": "Gerbil",
      "gain": 0.45,
      "off_x": -0.03,
      "off_y": -0.3,
      "pause": 0,
      "gain_initially_active": false,
      "gain_switch_interval": 20.0,
      "transition_duration": 10,
      "feed_interval": 900,
      "beacon_substr": "bars_green",
      "reward_radius": 0.18,
      "reward_delay": 1.0,
      "refractory_delay": 5,
      "timers": {
        "stop_experiment": 600,
        "turn_projection_off": 400
      }
    },
    "subjects": {
      "user_name": "andrey",
      "animal": "000001"
    },
    "verbose": true
  },
  "event_bus": {
    "bind_in": 5559,
    "bind_out": 5560
  },
  "save_to": "D:\\sirotalab\\andrey_data"
}