# Blender v2.77 (sub 0) OBJ File: 'track.blend'
# www.blender.org
mtllib linear.mtl
o ShapeIndexedFaceSet.009
v 4.000000 0.500000 0.000000
v 3.000000 0.500000 0.000000
v 3.000000 -0.500000 0.000000
v 4.000000 -0.500000 0.000000
vt 0.9999 0.0001
vt 0.0001 0.9999
vt 0.0001 0.0001
vt 0.9999 0.9999
vn -0.0000 0.0000 1.0000
usemtl Shape.001
s off
f 2/1/1 4/2/1 1/3/1
f 2/1/1 3/4/1 4/2/1
o ShapeIndexedFaceSet.008
v 4.000000 0.500000 0.000000
v 4.000000 0.500000 1.000000
v 3.000000 0.500000 0.000000
v 3.000000 0.500000 1.000000
v 4.000000 -0.500000 0.000000
v 4.000000 -0.500000 1.000000
v 3.000000 -0.500000 0.000000
v 3.000000 -0.500000 1.000000
vt 1.0000 0.0000
vt 0.0000 1.0000
vt 0.0000 0.0000
vt 1.0000 0.0000
vt 0.0000 1.0000
vt 0.0000 0.0000
vt 1.0000 0.0000
vt 0.0000 1.0000
vt 0.0000 0.0000
vt 1.0000 1.0000
vt 1.0000 1.0000
vt 1.0000 1.0000
vn -0.0000 1.0000 -0.0000
vn 0.0000 -1.0000 0.0000
vn -1.0000 0.0000 0.0000
usemtl Shape.005
s off
f 11/5/2 10/6/2 9/7/2
f 5/8/3 8/9/3 7/10/3
f 9/11/4 6/12/4 5/13/4
f 11/5/2 12/14/2 10/6/2
f 5/8/3 6/15/3 8/9/3
f 9/11/4 10/16/4 6/12/4
o ShapeIndexedFaceSet.007
v 3.000000 0.500000 0.000000
v 1.000000 0.500000 0.000000
v 1.000000 -0.500000 0.000000
v 3.000000 -0.500000 0.000000
vt 0.0001 0.0001
vt 0.9999 0.5000
vt 0.0001 0.5000
vt 0.9999 0.0001
vn -0.0000 0.0000 1.0000
usemtl Shape.001
s off
f 13/17/5 15/18/5 16/19/5
f 13/17/5 14/20/5 15/18/5
o ShapeIndexedFaceSet.006
v 3.000000 0.500000 0.000000
v 3.000000 0.500000 1.000000
v 1.000000 0.500000 0.000000
v 1.000000 0.500000 1.000000
v 3.000000 -0.500000 0.000000
v 3.000000 -0.500000 1.000000
v 1.000000 -0.500000 0.000000
v 1.000000 -0.500000 1.000000
vt 1.0000 0.0000
vt 0.0000 1.0000
vt 0.0000 0.0000
vt 1.0000 0.0000
vt 0.0000 1.0000
vt 0.0000 0.0000
vt 1.0000 1.0000
vt 1.0000 1.0000
vn -0.0000 1.0000 0.0000
vn 0.0000 -1.0000 0.0000
usemtl Shape.004
s off
f 23/21/6 22/22/6 21/23/6
f 17/24/7 20/25/7 19/26/7
f 23/21/6 24/27/6 22/22/6
f 17/24/7 18/28/7 20/25/7
o ShapeIndexedFaceSet.005
v 1.000000 0.500000 0.000000
v -1.000000 0.500000 0.000000
v -1.000000 -0.500000 0.000000
v 1.000000 -0.500000 0.000000
vt 0.0001 0.0001
vt 0.9999 0.5000
vt 0.0001 0.5000
vt 0.9999 0.0001
vn -0.0000 0.0000 1.0000
usemtl Shape.001
s off
f 25/29/8 27/30/8 28/31/8
f 25/29/8 26/32/8 27/30/8
o ShapeIndexedFaceSet.004
v 1.000000 0.500000 0.000000
v 1.000000 0.500000 1.000000
v -1.000000 0.500000 0.000000
v -1.000000 0.500000 1.000000
v 1.000000 -0.500000 0.000000
v 1.000000 -0.500000 1.000000
v -1.000000 -0.500000 0.000000
v -1.000000 -0.500000 1.000000
vt 1.0000 0.0000
vt 0.0000 1.0000
vt 0.0000 0.0000
vt 1.0000 0.0000
vt 0.0000 1.0000
vt 0.0000 0.0000
vt 1.0000 1.0000
vt 1.0000 1.0000
vn -0.0000 1.0000 0.0000
vn 0.0000 -1.0000 0.0000
usemtl Shape.003
s off
f 35/33/9 34/34/9 33/35/9
f 29/36/10 32/37/10 31/38/10
f 35/33/9 36/39/9 34/34/9
f 29/36/10 30/40/10 32/37/10
o ShapeIndexedFaceSet.003
v -1.000000 0.500000 0.000000
v -3.000000 0.500000 0.000000
v -3.000000 -0.500000 0.000000
v -1.000000 -0.500000 0.000000
vt 0.0001 0.0001
vt 0.9999 0.5000
vt 0.0001 0.5000
vt 0.9999 0.0001
vn -0.0000 0.0000 1.0000
usemtl Shape.001
s off
f 37/41/11 39/42/11 40/43/11
f 37/41/11 38/44/11 39/42/11
o ShapeIndexedFaceSet.002
v -1.000000 0.500000 0.000000
v -1.000000 0.500000 1.000000
v -3.000000 0.500000 0.000000
v -3.000000 0.500000 1.000000
v -1.000000 -0.500000 0.000000
v -1.000000 -0.500000 1.000000
v -3.000000 -0.500000 0.000000
v -3.000000 -0.500000 1.000000
vt 1.0000 0.0000
vt 0.0000 1.0000
vt 0.0000 0.0000
vt 1.0000 0.0000
vt 0.0000 1.0000
vt 0.0000 0.0000
vt 1.0000 1.0000
vt 1.0000 1.0000
vn -0.0000 1.0000 0.0000
vn 0.0000 -1.0000 0.0000
usemtl Shape.002
s off
f 47/45/12 46/46/12 45/47/12
f 41/48/13 44/49/13 43/50/13
f 47/45/12 48/51/12 46/46/12
f 41/48/13 42/52/13 44/49/13
o ShapeIndexedFaceSet.001
v -3.000000 0.500000 0.000000
v -4.000000 0.500000 0.000000
v -4.000000 -0.500000 0.000000
v -3.000000 -0.500000 0.000000
vt 0.9999 0.0001
vt 0.0001 0.9999
vt 0.0001 0.0001
vt 0.9999 0.9999
vn -0.0000 0.0000 1.0000
usemtl Shape.001
s off
f 50/53/14 52/54/14 49/55/14
f 50/53/14 51/56/14 52/54/14
o ShapeIndexedFaceSet
v -3.000000 0.500000 0.000000
v -3.000000 0.500000 1.000000
v -4.000000 0.500000 0.000000
v -4.000000 0.500000 1.000000
v -3.000000 -0.500000 0.000000
v -3.000000 -0.500000 1.000000
v -4.000000 -0.500000 0.000000
v -4.000000 -0.500000 1.000000
vt 1.0000 0.0000
vt 0.0000 1.0000
vt 0.0000 0.0000
vt 1.0000 0.0000
vt 0.0000 1.0000
vt 0.0000 0.0000
vt 1.0000 0.0000
vt 0.0000 1.0000
vt 0.0000 0.0000
vt 1.0000 1.0000
vt 1.0000 1.0000
vt 1.0000 1.0000
vn -0.0000 1.0000 -0.0000
vn 1.0000 0.0000 0.0000
vn 0.0000 -1.0000 0.0000
usemtl Shape
s off
f 59/57/15 58/58/15 57/59/15
f 55/60/16 60/61/16 59/62/16
f 53/63/17 56/64/17 55/65/17
f 59/57/15 60/66/15 58/58/15
f 55/60/16 56/67/16 60/61/16
f 53/63/17 54/68/17 56/64/17
